<?xml version="1.0" encoding="UTF-8" standalone="no"?>
<!-- Generated by CodeCogs with dvisvgm 2.11.1 -->

<svg
   version="1.1"
   width="326.181714pt"
   height="32.408907pt"
   viewBox="-.239051 -.22797 326.181714 32.408907"
   id="svg1146"
   sodipodi:docname="equation.svg"
   inkscape:version="1.1.2 (0a00cf5, 2022-02-04)"
   xmlns:inkscape="http://www.inkscape.org/namespaces/inkscape"
   xmlns:sodipodi="http://sodipodi.sourceforge.net/DTD/sodipodi-0.dtd"
   xmlns:xlink="http://www.w3.org/1999/xlink"
   xmlns="http://www.w3.org/2000/svg"
   xmlns:svg="http://www.w3.org/2000/svg">
  <sodipodi:namedview
     id="namedview1148"
     pagecolor="#505050"
     bordercolor="#eeeeee"
     borderopacity="1"
     inkscape:pageshadow="0"
     inkscape:pageopacity="0"
     inkscape:pagecheckerboard="0"
     inkscape:document-units="pt"
     showgrid="false"
     inkscape:zoom="1.2401802"
     inkscape:cx="140.70536"
     inkscape:cy="32.253378"
     inkscape:window-width="1366"
     inkscape:window-height="717"
     inkscape:window-x="0"
     inkscape:window-y="461"
     inkscape:window-maximized="1"
     inkscape:current-layer="layer1" />
  <defs
     id="defs1035">
    <path
       id="g5-49"
       d="M2.502615-5.076961C2.502615-5.292154 2.486675-5.300125 2.271482-5.300125C1.944707-4.98132 1.522291-4.790037 .765131-4.790037V-4.527024C.980324-4.527024 1.41071-4.527024 1.872976-4.742217V-.653549C1.872976-.358655 1.849066-.263014 1.091905-.263014H.812951V0C1.139726-.02391 1.825156-.02391 2.183811-.02391S3.235866-.02391 3.56264 0V-.263014H3.283686C2.526526-.263014 2.502615-.358655 2.502615-.653549V-5.076961Z" />
    <path
       id="g2-0"
       d="M7.878456-2.749689C8.081694-2.749689 8.296887-2.749689 8.296887-2.988792S8.081694-3.227895 7.878456-3.227895H1.41071C1.207472-3.227895 .992279-3.227895 .992279-2.988792S1.207472-2.749689 1.41071-2.749689H7.878456Z" />
    <path
       id="g2-106"
       d="M1.900872-8.53599C1.900872-8.751183 1.900872-8.966376 1.661768-8.966376S1.422665-8.751183 1.422665-8.53599V2.558406C1.422665 2.773599 1.422665 2.988792 1.661768 2.988792S1.900872 2.773599 1.900872 2.558406V-8.53599Z" />
    <path
       id="g1-0"
       d="M5.571108-1.809215C5.69863-1.809215 5.873973-1.809215 5.873973-1.992528S5.69863-2.175841 5.571108-2.175841H1.004234C.876712-2.175841 .70137-2.175841 .70137-1.992528S.876712-1.809215 1.004234-1.809215H5.571108Z" />
    <path
       id="g0-18"
       d="M8.368618 28.08269C8.368618 28.034869 8.344707 28.010959 8.320797 27.975093C7.878456 27.532752 7.07746 26.731756 6.276463 25.440598C4.351681 22.356164 3.478954 18.470735 3.478954 13.867995C3.478954 10.652055 3.90934 6.503611 5.881943 2.940971C6.826401 1.243337 7.806725 .263014 8.332752-.263014C8.368618-.298879 8.368618-.32279 8.368618-.358655C8.368618-.478207 8.284932-.478207 8.117559-.478207S7.926276-.478207 7.746949-.298879C3.741968 3.347447 2.486675 8.822914 2.486675 13.85604C2.486675 18.554421 3.56264 23.288667 6.599253 26.863263C6.838356 27.138232 7.292653 27.628394 7.782814 28.05878C7.926276 28.202242 7.950187 28.202242 8.117559 28.202242S8.368618 28.202242 8.368618 28.08269Z" />
    <path
       id="g0-19"
       d="M6.300374 13.867995C6.300374 9.169614 5.224408 4.435367 2.187796 .860772C1.948692 .585803 1.494396 .095641 1.004234-.334745C.860772-.478207 .836862-.478207 .669489-.478207C.526027-.478207 .418431-.478207 .418431-.358655C.418431-.310834 .466252-.263014 .490162-.239103C.908593 .191283 1.709589 .992279 2.510585 2.283437C4.435367 5.36787 5.308095 9.2533 5.308095 13.85604C5.308095 17.07198 4.877709 21.220423 2.905106 24.783064C1.960648 26.480697 .968369 27.472976 .466252 27.975093C.442341 28.010959 .418431 28.046824 .418431 28.08269C.418431 28.202242 .526027 28.202242 .669489 28.202242C.836862 28.202242 .860772 28.202242 1.0401 28.022914C5.045081 24.376588 6.300374 18.901121 6.300374 13.867995Z" />
    <path
       id="g6-40"
       d="M3.88543 2.905106C3.88543 2.86924 3.88543 2.84533 3.682192 2.642092C2.486675 1.43462 1.817186-.537983 1.817186-2.976837C1.817186-5.296139 2.379078-7.292653 3.765878-8.703362C3.88543-8.810959 3.88543-8.834869 3.88543-8.870735C3.88543-8.942466 3.825654-8.966376 3.777833-8.966376C3.622416-8.966376 2.642092-8.105604 2.056289-6.933998C1.446575-5.726526 1.171606-4.447323 1.171606-2.976837C1.171606-1.912827 1.338979-.490162 1.960648 .789041C2.666002 2.223661 3.646326 3.000747 3.777833 3.000747C3.825654 3.000747 3.88543 2.976837 3.88543 2.905106Z" />
    <path
       id="g6-41"
       d="M3.371357-2.976837C3.371357-3.88543 3.251806-5.36787 2.582316-6.75467C1.876961-8.18929 .896638-8.966376 .765131-8.966376C.71731-8.966376 .657534-8.942466 .657534-8.870735C.657534-8.834869 .657534-8.810959 .860772-8.607721C2.056289-7.400249 2.725778-5.427646 2.725778-2.988792C2.725778-.669489 2.163885 1.327024 .777086 2.737733C.657534 2.84533 .657534 2.86924 .657534 2.905106C.657534 2.976837 .71731 3.000747 .765131 3.000747C.920548 3.000747 1.900872 2.139975 2.486675 .968369C3.096389-.251059 3.371357-1.542217 3.371357-2.976837Z" />
    <path
       id="g6-43"
       d="M4.770112-2.761644H8.069738C8.237111-2.761644 8.452304-2.761644 8.452304-2.976837C8.452304-3.203985 8.249066-3.203985 8.069738-3.203985H4.770112V-6.503611C4.770112-6.670984 4.770112-6.886177 4.554919-6.886177C4.327771-6.886177 4.327771-6.682939 4.327771-6.503611V-3.203985H1.028144C.860772-3.203985 .645579-3.203985 .645579-2.988792C.645579-2.761644 .848817-2.761644 1.028144-2.761644H4.327771V.537983C4.327771 .705355 4.327771 .920548 4.542964 .920548C4.770112 .920548 4.770112 .71731 4.770112 .537983V-2.761644Z" />
    <path
       id="g6-48"
       d="M5.355915-3.825654C5.355915-4.817933 5.296139-5.786301 4.865753-6.694894C4.375592-7.687173 3.514819-7.950187 2.929016-7.950187C2.235616-7.950187 1.3868-7.603487 .944458-6.611208C.609714-5.858032 .490162-5.116812 .490162-3.825654C.490162-2.666002 .573848-1.793275 1.004234-.944458C1.470486-.035866 2.295392 .251059 2.917061 .251059C3.957161 .251059 4.554919-.37061 4.901619-1.06401C5.332005-1.960648 5.355915-3.132254 5.355915-3.825654ZM2.917061 .011955C2.534496 .011955 1.75741-.203238 1.530262-1.506351C1.398755-2.223661 1.398755-3.132254 1.398755-3.969116C1.398755-4.94944 1.398755-5.834122 1.590037-6.539477C1.793275-7.340473 2.402989-7.711083 2.917061-7.711083C3.371357-7.711083 4.064757-7.436115 4.291905-6.40797C4.447323-5.726526 4.447323-4.782067 4.447323-3.969116C4.447323-3.16812 4.447323-2.259527 4.315816-1.530262C4.088667-.215193 3.335492 .011955 2.917061 .011955Z" />
    <path
       id="g6-49"
       d="M3.443088-7.663263C3.443088-7.938232 3.443088-7.950187 3.203985-7.950187C2.917061-7.627397 2.319303-7.185056 1.08792-7.185056V-6.838356C1.362889-6.838356 1.960648-6.838356 2.618182-7.149191V-.920548C2.618182-.490162 2.582316-.3467 1.530262-.3467H1.159651V0C1.482441-.02391 2.642092-.02391 3.036613-.02391S4.578829-.02391 4.901619 0V-.3467H4.531009C3.478954-.3467 3.443088-.490162 3.443088-.920548V-7.663263Z" />
    <path
       id="g6-50"
       d="M5.260274-2.008468H4.99726C4.961395-1.80523 4.865753-1.147696 4.746202-.956413C4.662516-.848817 3.981071-.848817 3.622416-.848817H1.41071C1.733499-1.123786 2.462765-1.888917 2.773599-2.175841C4.590785-3.849564 5.260274-4.471233 5.260274-5.654795C5.260274-7.029639 4.172354-7.950187 2.785554-7.950187S.585803-6.766625 .585803-5.738481C.585803-5.128767 1.111831-5.128767 1.147696-5.128767C1.398755-5.128767 1.709589-5.308095 1.709589-5.69066C1.709589-6.025405 1.482441-6.252553 1.147696-6.252553C1.0401-6.252553 1.016189-6.252553 .980324-6.240598C1.207472-7.053549 1.853051-7.603487 2.630137-7.603487C3.646326-7.603487 4.267995-6.75467 4.267995-5.654795C4.267995-4.638605 3.682192-3.753923 3.000747-2.988792L.585803-.286924V0H4.94944L5.260274-2.008468Z" />
    <path
       id="g6-51"
       d="M2.199751-4.291905C1.996513-4.27995 1.948692-4.267995 1.948692-4.160399C1.948692-4.040847 2.008468-4.040847 2.223661-4.040847H2.773599C3.789788-4.040847 4.244085-3.203985 4.244085-2.056289C4.244085-.490162 3.431133-.071731 2.84533-.071731C2.271482-.071731 1.291158-.3467 .944458-1.135741C1.327024-1.075965 1.673724-1.291158 1.673724-1.721544C1.673724-2.068244 1.422665-2.307347 1.08792-2.307347C.800996-2.307347 .490162-2.139975 .490162-1.685679C.490162-.621669 1.554172 .251059 2.881196 .251059C4.303861 .251059 5.355915-.836862 5.355915-2.044334C5.355915-3.144209 4.471233-4.004981 3.323537-4.208219C4.363636-4.507098 5.033126-5.379826 5.033126-6.312329C5.033126-7.256787 4.052802-7.950187 2.893151-7.950187C1.697634-7.950187 .812951-7.220922 .812951-6.348194C.812951-5.869988 1.183562-5.774346 1.362889-5.774346C1.613948-5.774346 1.900872-5.953674 1.900872-6.312329C1.900872-6.694894 1.613948-6.862267 1.350934-6.862267C1.279203-6.862267 1.255293-6.862267 1.219427-6.850311C1.673724-7.663263 2.797509-7.663263 2.857285-7.663263C3.251806-7.663263 4.028892-7.483935 4.028892-6.312329C4.028892-6.085181 3.993026-5.415691 3.646326-4.901619C3.287671-4.375592 2.881196-4.339726 2.558406-4.327771L2.199751-4.291905Z" />
    <path
       id="g6-53"
       d="M1.530262-6.850311C2.044334-6.682939 2.462765-6.670984 2.594271-6.670984C3.945205-6.670984 4.805978-7.663263 4.805978-7.830635C4.805978-7.878456 4.782067-7.938232 4.710336-7.938232C4.686426-7.938232 4.662516-7.938232 4.554919-7.890411C3.88543-7.603487 3.311582-7.567621 3.000747-7.567621C2.211706-7.567621 1.649813-7.806725 1.422665-7.902366C1.338979-7.938232 1.315068-7.938232 1.303113-7.938232C1.207472-7.938232 1.207472-7.866501 1.207472-7.675218V-4.124533C1.207472-3.90934 1.207472-3.837609 1.350934-3.837609C1.41071-3.837609 1.422665-3.849564 1.542217-3.993026C1.876961-4.483188 2.438854-4.770112 3.036613-4.770112C3.670237-4.770112 3.981071-4.184309 4.076712-3.981071C4.27995-3.514819 4.291905-2.929016 4.291905-2.47472S4.291905-1.338979 3.957161-.800996C3.694147-.37061 3.227895-.071731 2.701868-.071731C1.912827-.071731 1.135741-.609714 .920548-1.482441C.980324-1.458531 1.052055-1.446575 1.111831-1.446575C1.315068-1.446575 1.637858-1.566127 1.637858-1.972603C1.637858-2.307347 1.41071-2.49863 1.111831-2.49863C.896638-2.49863 .585803-2.391034 .585803-1.924782C.585803-.908593 1.398755 .251059 2.725778 .251059C4.076712 .251059 5.260274-.884682 5.260274-2.402989C5.260274-3.825654 4.303861-5.009215 3.048568-5.009215C2.367123-5.009215 1.841096-4.710336 1.530262-4.375592V-6.850311Z" />
    <path
       id="g6-61"
       d="M8.069738-3.873474C8.237111-3.873474 8.452304-3.873474 8.452304-4.088667C8.452304-4.315816 8.249066-4.315816 8.069738-4.315816H1.028144C.860772-4.315816 .645579-4.315816 .645579-4.100623C.645579-3.873474 .848817-3.873474 1.028144-3.873474H8.069738ZM8.069738-1.649813C8.237111-1.649813 8.452304-1.649813 8.452304-1.865006C8.452304-2.092154 8.249066-2.092154 8.069738-2.092154H1.028144C.860772-2.092154 .645579-2.092154 .645579-1.876961C.645579-1.649813 .848817-1.649813 1.028144-1.649813H8.069738Z" />
    <path
       id="g3-110"
       d="M1.594022-1.307098C1.617933-1.42665 1.697634-1.729514 1.721544-1.849066C1.833126-2.279452 1.833126-2.287422 2.016438-2.550436C2.279452-2.940971 2.654047-3.291656 3.188045-3.291656C3.474969-3.291656 3.642341-3.124284 3.642341-2.749689C3.642341-2.311333 3.307597-1.40274 3.156164-1.012204C3.052553-.749191 3.052553-.70137 3.052553-.597758C3.052553-.143462 3.427148 .079701 3.769863 .079701C4.550934 .079701 4.877709-1.036115 4.877709-1.139726C4.877709-1.219427 4.813948-1.243337 4.758157-1.243337C4.662516-1.243337 4.646575-1.187547 4.622665-1.107846C4.431382-.454296 4.096638-.143462 3.793773-.143462C3.666252-.143462 3.602491-.223163 3.602491-.406476S3.666252-.765131 3.745953-.964384C3.865504-1.267248 4.216189-2.183811 4.216189-2.630137C4.216189-3.227895 3.801743-3.514819 3.227895-3.514819C2.582316-3.514819 2.16787-3.124284 1.936737-2.82142C1.880946-3.259776 1.530262-3.514819 1.123786-3.514819C.836862-3.514819 .637609-3.331507 .510087-3.084433C.318804-2.709838 .239103-2.311333 .239103-2.295392C.239103-2.223661 .294894-2.191781 .358655-2.191781C.462267-2.191781 .470237-2.223661 .526027-2.430884C.621669-2.82142 .765131-3.291656 1.099875-3.291656C1.307098-3.291656 1.354919-3.092403 1.354919-2.917061C1.354919-2.773599 1.315068-2.622167 1.251308-2.359153C1.235367-2.295392 1.115816-1.825156 1.083935-1.713574L.789041-.518057C.757161-.398506 .70934-.199253 .70934-.167372C.70934 .01594 .860772 .079701 .964384 .079701C1.107846 .079701 1.227397-.01594 1.283188-.111582C1.307098-.159402 1.370859-.430386 1.41071-.597758L1.594022-1.307098Z" />
    <path
       id="g4-58"
       d="M2.199751-.573848C2.199751-.920548 1.912827-1.159651 1.625903-1.159651C1.279203-1.159651 1.0401-.872727 1.0401-.585803C1.0401-.239103 1.327024 0 1.613948 0C1.960648 0 2.199751-.286924 2.199751-.573848Z" />
    <path
       id="g4-97"
       d="M3.598506-1.422665C3.53873-1.219427 3.53873-1.195517 3.371357-.968369C3.108344-.633624 2.582316-.119552 2.020423-.119552C1.530262-.119552 1.255293-.561893 1.255293-1.267248C1.255293-1.924782 1.625903-3.263761 1.853051-3.765878C2.259527-4.60274 2.82142-5.033126 3.287671-5.033126C4.076712-5.033126 4.23213-4.052802 4.23213-3.957161C4.23213-3.945205 4.196264-3.789788 4.184309-3.765878L3.598506-1.422665ZM4.363636-4.483188C4.23213-4.794022 3.90934-5.272229 3.287671-5.272229C1.936737-5.272229 .478207-3.526775 .478207-1.75741C.478207-.573848 1.171606 .119552 1.984558 .119552C2.642092 .119552 3.203985-.394521 3.53873-.789041C3.658281-.083686 4.220174 .119552 4.578829 .119552S5.224408-.095641 5.439601-.526027C5.630884-.932503 5.798257-1.661768 5.798257-1.709589C5.798257-1.769365 5.750436-1.817186 5.678705-1.817186C5.571108-1.817186 5.559153-1.75741 5.511333-1.578082C5.332005-.872727 5.104857-.119552 4.614695-.119552C4.267995-.119552 4.244085-.430386 4.244085-.669489C4.244085-.944458 4.27995-1.075965 4.387547-1.542217C4.471233-1.841096 4.531009-2.10411 4.62665-2.450809C5.068991-4.244085 5.176588-4.674471 5.176588-4.746202C5.176588-4.913574 5.045081-5.045081 4.865753-5.045081C4.483188-5.045081 4.387547-4.62665 4.363636-4.483188Z" />
  </defs>
  <g
     inkscape:groupmode="layer"
     id="layer1"
     inkscape:label="Layer 1">
    <rect
       style="fill:#ffffff;fill-opacity:1;stroke:#000000;stroke-width:0;stroke-miterlimit:4;stroke-dasharray:none;stroke-opacity:0"
       id="rect1248"
       width="334.87671"
       height="42.989258"
       x="-4.3869495"
       y="-5.1255679" />
  </g>
  <g
     inkscape:groupmode="layer"
     id="layer2"
     inkscape:label="Layer 2">
    <g
       id="page1"
       transform="matrix(1.13,0,0,1.13,-63.986043,-61.019978)">
      <use
         x="56.413267"
         y="71.133381"
         xlink:href="#g4-97"
         id="use1037" />
      <use
         x="62.558211"
         y="72.926644"
         xlink:href="#g3-110"
         id="use1039" />
      <use
         x="71.515375"
         y="71.133381"
         xlink:href="#g6-61"
         id="use1041" />
      <use
         x="83.940856"
         y="54.276444"
         xlink:href="#g0-18"
         id="use1043" />
      <use
         x="92.741229"
         y="71.133381"
         xlink:href="#g6-48"
         id="use1045" />
      <use
         x="98.594219"
         y="71.133381"
         xlink:href="#g4-58"
         id="use1047" />
      <use
         x="101.84588"
         y="71.133381"
         xlink:href="#g6-53"
         id="use1049" />
      <use
         x="110.355534"
         y="71.133381"
         xlink:href="#g6-43"
         id="use1051" />
      <use
         x="123.312363"
         y="63.045622"
         xlink:href="#g2-106"
         id="use1053" />
      <use
         x="126.633253"
         y="63.045622"
         xlink:href="#g4-97"
         id="use1055" />
      <use
         x="132.778197"
         y="64.838885"
         xlink:href="#g3-110"
         id="use1057" />
      <use
         x="137.9164"
         y="64.838885"
         xlink:href="#g1-0"
         id="use1059" />
      <use
         x="144.502906"
         y="64.838885"
         xlink:href="#g5-49"
         id="use1061" />
      <use
         x="149.235221"
         y="63.045622"
         xlink:href="#g2-106"
         id="use1063" />
      <rect
         x="123.312363"
         y="67.905495"
         height=".478187"
         width="29.243745"
         id="rect1065" />
      <use
         x="123.706758"
         y="79.334043"
         xlink:href="#g6-50"
         id="use1067" />
      <use
         x="129.559748"
         y="79.334043"
         xlink:href="#g4-97"
         id="use1069" />
      <use
         x="135.704692"
         y="81.127306"
         xlink:href="#g3-110"
         id="use1071" />
      <use
         x="140.842895"
         y="81.127306"
         xlink:href="#g1-0"
         id="use1073" />
      <use
         x="147.429401"
         y="81.127306"
         xlink:href="#g5-49"
         id="use1075" />
      <use
         x="153.751621"
         y="54.276444"
         xlink:href="#g0-19"
         id="use1077" />
      <use
         x="164.544492"
         y="71.133381"
         xlink:href="#g6-40"
         id="use1079" />
      <use
         x="169.096817"
         y="71.133381"
         xlink:href="#g6-51"
         id="use1081" />
      <use
         x="174.949808"
         y="71.133381"
         xlink:href="#g4-97"
         id="use1083" />
      <use
         x="181.094752"
         y="72.926644"
         xlink:href="#g3-110"
         id="use1085" />
      <use
         x="186.232954"
         y="72.926644"
         xlink:href="#g1-0"
         id="use1087" />
      <use
         x="192.819461"
         y="72.926644"
         xlink:href="#g5-49"
         id="use1089" />
      <use
         x="200.208439"
         y="71.133381"
         xlink:href="#g2-0"
         id="use1091" />
      <use
         x="212.1636"
         y="71.133381"
         xlink:href="#g6-49"
         id="use1093" />
      <use
         x="218.01659"
         y="71.133381"
         xlink:href="#g6-41"
         id="use1095" />
      <use
         x="225.225579"
         y="71.133381"
         xlink:href="#g6-43"
         id="use1097" />
      <use
         x="236.986894"
         y="54.276444"
         xlink:href="#g0-18"
         id="use1099" />
      <use
         x="245.787267"
         y="71.133381"
         xlink:href="#g6-48"
         id="use1101" />
      <use
         x="251.640257"
         y="71.133381"
         xlink:href="#g4-58"
         id="use1103" />
      <use
         x="254.891918"
         y="71.133381"
         xlink:href="#g6-53"
         id="use1105" />
      <use
         x="263.401572"
         y="71.133381"
         xlink:href="#g2-0"
         id="use1107" />
      <use
         x="276.552246"
         y="63.045622"
         xlink:href="#g2-106"
         id="use1109" />
      <use
         x="279.873137"
         y="63.045622"
         xlink:href="#g4-97"
         id="use1111" />
      <use
         x="286.018081"
         y="64.838885"
         xlink:href="#g3-110"
         id="use1113" />
      <use
         x="291.156283"
         y="64.838885"
         xlink:href="#g1-0"
         id="use1115" />
      <use
         x="297.74279"
         y="64.838885"
         xlink:href="#g5-49"
         id="use1117" />
      <use
         x="302.475105"
         y="63.045622"
         xlink:href="#g2-106"
         id="use1119" />
      <rect
         x="276.552246"
         y="67.905495"
         height=".478187"
         width="29.243745"
         id="rect1121" />
      <use
         x="276.946641"
         y="79.334043"
         xlink:href="#g6-50"
         id="use1123" />
      <use
         x="282.799632"
         y="79.334043"
         xlink:href="#g4-97"
         id="use1125" />
      <use
         x="288.944576"
         y="81.127306"
         xlink:href="#g3-110"
         id="use1127" />
      <use
         x="294.082778"
         y="81.127306"
         xlink:href="#g1-0"
         id="use1129" />
      <use
         x="300.669285"
         y="81.127306"
         xlink:href="#g5-49"
         id="use1131" />
      <use
         x="306.991505"
         y="54.276444"
         xlink:href="#g0-19"
         id="use1133" />
      <use
         x="317.784368"
         y="71.133381"
         xlink:href="#g6-50"
         id="use1135" />
      <use
         x="323.637358"
         y="71.133381"
         xlink:href="#g4-97"
         id="use1137" />
      <use
         x="329.782302"
         y="72.926644"
         xlink:href="#g3-110"
         id="use1139" />
      <use
         x="334.920505"
         y="72.926644"
         xlink:href="#g1-0"
         id="use1141" />
      <use
         x="341.507011"
         y="72.926644"
         xlink:href="#g5-49"
         id="use1143" />
    </g>
  </g>
</svg>
